-72 -16 -40 -32 -24 768
-40 -16 -64 -64 776
-48 -24 904
-32 -56 -72 808
-24 -56 -40 848
-72 16 -72 -40 -40 712
-72 -40 -32 -72 744
-72 -40 -48 -56 -56 680
-16 -32 8 -48 -56 792
-40 -48 -8 872
-8 -56 -64 840
-72 -64 -64 -64 696
-72 -64 -72 -48 704
24 -16 936
-8 8 -24 -32 888
-40 -48 -24 856
-72 912
-64 -48 864
-8 -8 -64 -8 872
-32 -40 904
-16 40 -56 -48 -32 -24 728
-16 -16 -56 -24 848
-40 -32 -64 -8 -16 -72 712
