-64 -8 16 -32 -120 -96 -56 104 -40 -96 280
-72 -24 -64 808
-56 928
-40 -88 -72 -104 -56 -80 -24 -16 448
-120 -80 -40 -112 608
-80 -8 -88 -40 -32 -64 -16 608
-16 -96 864
-48 48 -24 -32 48 -16 -88 -72 552
992
-96 -48 832
-16 -120 -24 -24 -80 -80 -88 504
-40 -72 -96 -104 -24 616
992
992
992
-8 -32 -64 32 -48 -112 -8 -32 -88 -80 -64 336
-120 -8 848
-96 -112 -96 -24 -72 -96 -16 -112 304
-48 -32 -48 -120 -96 -32 -88 472
-16 -48 -16 -32 48 -8 776
-72 912
-72 32 -24 56 -104 -16 -40 -64 -24 -96 384
-16 -120 56 -120 16 -64 -72 472
-16 -24 -104 824
