24

2
11
7
-2
15
10
3
10
8
7
9

9
11
11
-4
-10
-9
-1
-7
15
4

5
8
12
4
9
-5
12
6
9
-3
-8

15
2
10
2
10
7
9
4
14
12
6

8
1
14
-10
1
-9
-6
10
-8
6
6

9
10
5
12
8
2
9
-3
6
1
11

10
9
2
15
-2
8
9
4
-5
7

11
8
4
-10
14
9
2
11
13
11
-4

13
8
5
15
14
-7
1
-1
9
9

10
12
7
2
7
6
-6
10
13
11

10
10
8
3
-9
13
6
-5
6
-7
8

1
-7
2
13
5
10
2
11
-4
8

-9
15
-10
11
8
15
14
2
5
-5

12
3
6
-2
2
14
9
7
11
10
3

12
-2
-3
7
3
10
12
11
1
1

9
13
5
1
9
7
9
10
-3
6

7
7
-4
9
5
7
15
13
12
12
3

9
10
14
-3
9
11
11
3
4
14

4
10
14
14
-3
2
15
8
2
4
1

15
11
-8
8
-2
5
2
-5
11
8
-5

3
6
6
10
15
4
9
6
9
11

9
9
4
14
11
4
13
3
-7
6

14
11
4
-4
-6
6
6
11
-3
-3
8

6
12
-5
4
-1
-9
13
12
3
13
